{
    "name": "drupal/simple_klaro",
    "description": "Simple implementation for the Klaro Consent Manager.",
    "type": "drupal-module",
    "license": "GPL-2.0-or-later",
    "minimum-stability": "dev",
    "homepage": "https://drupal.org/project/simple_klaro",
    "support": {
        "issues": "https://www.drupal.org/project/issues/simple_klaro",
        "source": "https://git.drupalcode.org/project/simple_klaro"
    },
    "require": {
        "kiprotect/klaro": "*"
    },
    "repositories": {
        "klaro": {
            "type": "package",
            "package": {
                "name": "kiprotect/klaro",
                "version": "0.7.18",
                "type": "drupal-library",
                "dist": {
                    "url": "https://github.com/kiprotect/klaro/archive/v0.7.18.zip",
                    "type": "zip"
                }
            }
        }
    }
}
